## Interface: 80300
## Title: Bagnon
## Author: Tuller & Jaliborc (João Cardoso)
## Notes: Single window displays for your inventory and bank
## OptionalDeps: BagBrother, WoWUnit, TestPoncho
## SavedVariables: Bagnon_Sets
## Version: 8.3.4

addons\main\main.xml
