## Interface: 11303
## Title: Fish Utility
## Author: SomeGuy
## Version: 1.0
## SavedVariablesPerCharacter: DB_CHAR_DATA

libs\LibStub\LibStub.lua
libs\CallbackHandler-1.0\CallbackHandler-1.0.xml
libs\AceGUI-3.0\AceGUI-3.0.xml
libs\AceConfig-3.0\AceConfig-3.0.xml
libs\AceEvent-3.0\AceEvent-3.0.xml
libs\AceDB-3.0\AceDB-3.0.xml
libs\AceDBOptions-3.0\AceDBOptions-3.0.xml
libs\LibDataBroker-1.1\LibDataBroker-1.1.lua
libs\HereBeDragons\HereBeDragons-2.0.lua
libs\HereBeDragons\HereBeDragons-Pins-2.0.lua

lib.lua
main.lua
transmit_fns.lua
transmit.lua
print.lua
vendor.lua
trainer.lua
actionbars.lua
talents.lua
player_requests.lua
ui_hide.lua
rest.lua
taxi.lua
camera.lua
report_fish.lua
fish_quota.lua
ah.lua
mail.lua
merchant.lua
db.lua
corpse.lua